exercise 6
…
normalized_prob %>% 
    filter(word1 == "brexit") %>%
    arrange(-p_together)

## # A tibble: 1,040 × 7
##    word1  word2                      n           p      p1         p2 p_together
##    <chr>  <chr>                  <dbl>       <dbl>   <dbl>      <dbl>      <dbl>
##  1 brexit brexit                 38579 0.000501    0.00278 0.00278          64.8
##  2 brexit scotlandsplaceineurope    21 0.000000273 0.00278 0.00000186       52.7
##  3 brexit softer                    44 0.000000571 0.00278 0.00000410       50.1
##  4 brexit blindfold                 50 0.000000649 0.00278 0.00000559       41.8
##  5 brexit dividend                 101 0.00000131  0.00278 0.0000127        37.2
##  6 brexit scenarios                 43 0.000000558 0.00278 0.00000633       31.7
##  7 brexit botched                  102 0.00000132  0.00278 0.0000153        31.2
##  8 brexit deadlock                 143 0.00000186  0.00278 0.0000246        27.2
##  9 brexit negotiator                40 0.000000519 0.00278 0.00000894       20.9
## 10 brexit thwart                    24 0.000000311 0.00278 0.00000559       20.1
## # ℹ 1,030 more rows
…
